{
   "links" : {
      "pages" : {
         "next" : "https://api.digitalocean.com/v2/droplets/5425561/kernels?page=2",
         "last" : "https://api.digitalocean.com/v2/droplets/5425561/kernels?page=2"
      }
   },
   "meta" : {
      "total" : 10
   },
   "kernels" : [
      {
         "id" : 231,
         "version" : "3.8.0-25-generic",
         "name" : "DO-recovery-static-fsck"
      },
      {
         "name" : "Ubuntu 10.04 x32 vmlinuz-2.6.32-41-generic-pae",
         "version" : "2.6.32-41-generic-pae",
         "id" : 61
      },
      {
         "name" : "Ubuntu 10.04 x32 vmlinuz-2.6.32-56-generic-pae",
         "id" : 946,
         "version" : "2.6.32-56-generic-pae"
      },
      {
         "name" : "Ubuntu 10.04 x32 vmlinuz-2.6.32-57-generic-pae",
         "id" : 987,
         "version" : "2.6.32-57-generic-pae"
      },
      {
         "name" : "Ubuntu 10.04 x32 vmlinuz-2.6.32-58-generic-pae",
         "id" : 1269,
         "version" : "2.6.32-58-generic-pae"
      }
   ]
}